%YAML 1.1
%TAG !u! tag:unity3d.com,2011:
--- !u!21 &2100000
Material:
  serializedVersion: 8
  m_ObjectHideFlags: 0
  m_CorrespondingSourceObject: {fileID: 0}
  m_PrefabInstance: {fileID: 0}
  m_PrefabAsset: {fileID: 0}
  m_Name: PosterHologramTest
  m_Shader: {fileID: 4800000, guid: 8ffe1bb537ddca649b8636af907f6d2f, type: 3}
  m_Parent: {fileID: 0}
  m_ModifiedSerializedProperties: 0
  m_ValidKeywords:
  - _SUNDISK_SIMPLE
  m_InvalidKeywords: []
  m_LightmapFlags: 4
  m_EnableInstancingVariants: 0
  m_DoubleSidedGI: 0
  m_CustomRenderQueue: -1
  stringTagMap: {}
  disabledShaderPasses: []
  m_LockedProperties: 
  m_SavedProperties:
    serializedVersion: 3
    m_TexEnvs:
    - _BumpMap:
        m_Texture: {fileID: 0}
        m_Scale: {x: 1, y: 1}
        m_Offset: {x: 0, y: 0}
    - _DetailAlbedoMap:
        m_Texture: {fileID: 0}
        m_Scale: {x: 1, y: 1}
        m_Offset: {x: 0, y: 0}
    - _DetailMask:
        m_Texture: {fileID: 0}
        m_Scale: {x: 1, y: 1}
        m_Offset: {x: 0, y: 0}
    - _DetailNormalMap:
        m_Texture: {fileID: 0}
        m_Scale: {x: 1, y: 1}
        m_Offset: {x: 0, y: 0}
    - _EmissionMap:
        m_Texture: {fileID: 0}
        m_Scale: {x: 1, y: 1}
        m_Offset: {x: 0, y: 0}
    - _Layer0:
        m_Texture: {fileID: 2800000, guid: 774632514c9a934498ca101462059379, type: 3}
        m_Scale: {x: 0.2, y: 0.5}
        m_Offset: {x: 0, y: 0}
    - _Layer1:
        m_Texture: {fileID: 2800000, guid: d194a75ff4579d746806a6f8e0fba8b0, type: 3}
        m_Scale: {x: 1, y: 1}
        m_Offset: {x: 0, y: 0}
    - _Layer2:
        m_Texture: {fileID: 2800000, guid: d194a75ff4579d746806a6f8e0fba8b0, type: 3}
        m_Scale: {x: 1, y: 1}
        m_Offset: {x: 0, y: 0}
    - _Layer3:
        m_Texture: {fileID: 2800000, guid: b584a926b2aaa5d43a7b6bc7b9180a2b, type: 3}
        m_Scale: {x: 1, y: 1}
        m_Offset: {x: 0, y: 0}
    - _Layer4:
        m_Texture: {fileID: 0}
        m_Scale: {x: 1, y: 1}
        m_Offset: {x: 0, y: 0}
    - _Layer5:
        m_Texture: {fileID: 0}
        m_Scale: {x: 1, y: 1}
        m_Offset: {x: 0, y: 0}
    - _Layer6:
        m_Texture: {fileID: 0}
        m_Scale: {x: 1, y: 1}
        m_Offset: {x: 0, y: 0}
    - _MainTex:
        m_Texture: {fileID: 0}
        m_Scale: {x: 1, y: 1}
        m_Offset: {x: 0, y: 0}
    - _MetallicGlossMap:
        m_Texture: {fileID: 0}
        m_Scale: {x: 1, y: 1}
        m_Offset: {x: 0, y: 0}
    - _OcclusionMap:
        m_Texture: {fileID: 0}
        m_Scale: {x: 1, y: 1}
        m_Offset: {x: 0, y: 0}
    - _ParallaxMap:
        m_Texture: {fileID: 0}
        m_Scale: {x: 1, y: 1}
        m_Offset: {x: 0, y: 0}
    - _SpecGlossMap:
        m_Texture: {fileID: 0}
        m_Scale: {x: 1, y: 1}
        m_Offset: {x: 0, y: 0}
    - _texcoord:
        m_Texture: {fileID: 0}
        m_Scale: {x: 1, y: 1}
        m_Offset: {x: 0, y: 0}
    m_Ints: []
    m_Floats:
    - _BlurLevel: 4
    - _BumpMapNormalScale: 0.1
    - _BumpMapScale: 0.1
    - _BumpScale: 1
    - _Cutoff: 0.5
    - _DebugMode: 0
    - _DetailNormalMapScale: 1
    - _DstBlend: 0
    - _EmissionStrength: 0.33
    - _FresnelPower: 2
    - _FresnelScale: 3
    - _GlossMapScale: 1
    - _Glossiness: 0.5
    - _GlossyReflections: 1
    - _Layer0Height: 0
    - _Layer1Cutoff: 0
    - _Layer1Height: 0.8
    - _Layer2Cutoff: 0
    - _Layer2Height: 0.8
    - _Layer3Cutoff: 0
    - _Layer3Height: 0.95
    - _Layer4Cutoff: 0
    - _Layer4Height: 1
    - _Layer5Cutoff: 0
    - _Layer5Height: 1
    - _Layer6Cutoff: 0
    - _Layer6Height: 1
    - _Metallic: 0
    - _Mode: 0
    - _Occlusion: 1
    - _OcclusionStrength: 1
    - _Parallax: 0.02
    - _ParallaxScale: 1
    - _SkipLayers1: 0
    - _SkipLayers2: 1
    - _Smoothness: 1
    - _SmoothnessTextureChannel: 0
    - _SpecularHighlights: 1
    - _SrcBlend: 1
    - _UVSec: 0
    - _UseBumpMap: 0
    - _UseSpecGlossMap: 0
    - _ZWrite: 1
    - __dirty: 1
    m_Colors:
    - _Color: {r: 1, g: 1, b: 1, a: 1}
    - _EmissionColor: {r: 0, g: 0, b: 0, a: 1}
  m_BuildTextureStacks: []
