%YAML 1.1
%TAG !u! tag:unity3d.com,2011:
--- !u!114 &11400000
MonoBehaviour:
  m_ObjectHideFlags: 0
  m_CorrespondingSourceObject: {fileID: 0}
  m_PrefabInstance: {fileID: 0}
  m_PrefabAsset: {fileID: 0}
  m_GameObject: {fileID: 0}
  m_Enabled: 1
  m_EditorHideFlags: 0
  m_Script: {fileID: 11500000, guid: 5136146375e9a0a498a72a0091b40cc1, type: 3}
  m_Name: ArchiTech.ProTV.Runtime
  m_EditorClassIdentifier: 
  sourceAssembly: {fileID: 5897886265953266890, guid: a34edcc090795d24ebafb53fec5b4ca8,
    type: 3}
